{
    "title":"Öffentlichkeit im Social Web",
    "description":"Dieser Kurs dient zur Diskussion von Öffentlichkeit im Zeitalter des Internets",
    "version":"0.1",
    "url":"https://bitbucket.org/openeoto/offentlichkeit-im-social-web",
    "authors":[{
        "name":"Matthias Andrasch",
        "link":"http://matthias-andrasch.de"
        }
    ],
    "publisher":"",
    "sessions":[
        {
            "id":1,
            "title":"Einführung",
            "path":"sessions/001/einfuehrung.html",
            "description":"Einführung in den Kurs"
        },
        {
            "id":2,
            "title":"Der neue Strukturwandel der Öffentlichkeit",
            "path":"sessions/002/strukturwandel_oeffentlichkeit.html",
            "description":""
        },
        {
            "id":3,
            "title":"Überlegungen zur Transformation von Öffentlichkeit durch das Social Web",
            "path":"sessions/003/transformation_oeffentlichkeit.html",
            "description":""
        },
        {
            "id":4,
            "title":"Die Filter-Bubble",
            "path":"sessions/004/filterblase.html",
            "description":""
        }
    ]
}